ulx3s_projects/extra_clockdiv/spinalHDL/simWorkspace/ClkDiv/test.vcd
$version Generated by VerilatedVcd $end
$date Sun Apr 26 22:20:06 2020
 $end
$timescale   1ns $end

 $scope module TOP $end
  $var wire  1 ' clk $end
  $var wire  1 & io_clk_out $end
  $var wire  1 ( reset $end
  $scope module ClkDiv $end
   $var wire  1 ' clk $end
   $var wire  3 $ counter_value [2:0] $end
   $var wire  3 # counter_valueNext [2:0] $end
   $var wire  1 * counter_willClear $end
   $var wire  1 ) counter_willIncrement $end
   $var wire  1 % counter_willOverflow $end
   $var wire  1 % counter_willOverflowIfInc $end
   $var wire  1 & io_clk_out $end
   $var wire  1 ( reset $end
  $upscope $end
 $upscope $end
$enddefinitions $end


#0
b010 #
b001 $
0%
0&
0'
1(
1)
0*
#32
0(
#34
b011 #
b010 $
1'
#35
0'
#36
b100 #
b011 $
1'
#37
0'
#38
b101 #
b100 $
1'
#39
0'
#40
b001 #
b101 $
1%
1&
1'
#41
0'
#42
b010 #
b001 $
0%
0&
1'
#43
0'
#44
b011 #
b010 $
1'
#45
0'
#46
b100 #
b011 $
1'
#47
0'
#48
b101 #
b100 $
1'
#49
0'
#50
b001 #
b101 $
1%
1&
1'
#51
0'
#52
b010 #
b001 $
0%
0&
1'
#53
0'
#54
b011 #
b010 $
1'
#55
0'
#56
b100 #
b011 $
1'
#57
0'
#58
b101 #
b100 $
1'
#59
0'
#60
b001 #
b101 $
1%
1&
1'
#61
0'
#62
b010 #
b001 $
0%
0&
1'
#63
0'
#64
b011 #
b010 $
1'
#65
0'
#66
b100 #
b011 $
1'
#67
0'
#68
b101 #
b100 $
1'
#69
0'
#70
b001 #
b101 $
1%
1&
1'
#71
0'
#72
b010 #
b001 $
0%
0&
1'
#73
0'
#74
b011 #
b010 $
1'
#75
0'
#76
b100 #
b011 $
1'
#77
0'
#78
b101 #
b100 $
1'
#79
0'
#80
b001 #
b101 $
1%
1&
1'
#81
0'
#82
b010 #
b001 $
0%
0&
1'
#83
0'
#84
b011 #
b010 $
1'
#85
0'
#86
b100 #
b011 $
1'
#87
0'
#88
b101 #
b100 $
1'
#89
0'
#90
b001 #
b101 $
1%
1&
1'
#91
0'
#92
b010 #
b001 $
0%
0&
1'
#93
0'
#94
b011 #
b010 $
1'
#95
0'
#96
b100 #
b011 $
1'
#97
0'
#98
b101 #
b100 $
1'
#99
0'
#100
b001 #
b101 $
1%
1&
1'
#101
0'
#102
b010 #
b001 $
0%
0&
1'
#103
0'
#104
b011 #
b010 $
1'
#105
0'
#106
b100 #
b011 $
1'
#107
0'
#108
b101 #
b100 $
1'
#109
0'
#110
b001 #
b101 $
1%
1&
1'
#111
0'
#112
b010 #
b001 $
0%
0&
1'
#113
0'
#114
b011 #
b010 $
1'
#115
0'
#116
b100 #
b011 $
1'
#117
0'
#118
b101 #
b100 $
1'
#119
0'
#120
b001 #
b101 $
1%
1&
1'
#121
0'
#122
b010 #
b001 $
0%
0&
1'
#123
0'
#124
b011 #
b010 $
1'
#125
0'
#126
b100 #
b011 $
1'
#127
0'
#128
b101 #
b100 $
1'
#129
0'
#130
b001 #
b101 $
1%
1&
1'
#131
0'
#132
b010 #
b001 $
0%
0&
1'
#133
0'
#134
b011 #
b010 $
1'
#135
0'
#136
b100 #
b011 $
1'
#137
0'
#138
b101 #
b100 $
1'
#139
0'
#140
b001 #
b101 $
1%
1&
1'
#141
0'
#142
b010 #
b001 $
0%
0&
1'
#143
0'
#144
b011 #
b010 $
1'
#145
0'
#146
b100 #
b011 $
1'
#147
0'
#148
b101 #
b100 $
1'
#149
0'
#150
b001 #
b101 $
1%
1&
1'
#151
0'
#152
b010 #
b001 $
0%
0&
1'
#153
0'
#154
b011 #
b010 $
1'
#155
0'
#156
b100 #
b011 $
1'
#157
0'
#158
b101 #
b100 $
1'
#159
0'
#160
b001 #
b101 $
1%
1&
1'
#161
0'
#162
b010 #
b001 $
0%
0&
1'
#163
0'
#164
b011 #
b010 $
1'
#165
0'
#166
b100 #
b011 $
1'
#167
0'
#168
b101 #
b100 $
1'
#169
0'
#170
b001 #
b101 $
1%
1&
1'
#171
0'
#172
b010 #
b001 $
0%
0&
1'
#173
0'
#174
b011 #
b010 $
1'
#175
0'
#176
b100 #
b011 $
1'
#177
0'
#178
b101 #
b100 $
1'
#179
0'
#180
b001 #
b101 $
1%
1&
1'
#181
0'
#182
b010 #
b001 $
0%
0&
1'
#183
0'
#184
b011 #
b010 $
1'
#185
0'
#186
b100 #
b011 $
1'
#187
0'
#188
b101 #
b100 $
1'
#189
0'
#190
b001 #
b101 $
1%
1&
1'
#191
0'
#192
b010 #
b001 $
0%
0&
1'
#193
0'
#194
b011 #
b010 $
1'
#195
0'
#196
b100 #
b011 $
1'
#197
0'
#198
b101 #
b100 $
1'
#199
0'
#200
b001 #
b101 $
1%
1&
1'
#201
0'
#202
b010 #
b001 $
0%
0&
1'
#203
0'
#204
b011 #
b010 $
1'
#205
0'
#206
b100 #
b011 $
1'
#207
0'
#208
b101 #
b100 $
1'
#209
0'
#210
b001 #
b101 $
1%
1&
1'
#211
0'
#212
b010 #
b001 $
0%
0&
1'
#213
0'
#214
b011 #
b010 $
1'
#215
0'
#216
b100 #
b011 $
1'
#217
0'
#218
b101 #
b100 $
1'
#219
0'
#220
b001 #
b101 $
1%
1&
1'
#221
0'
#222
b010 #
b001 $
0%
0&
1'
#223
0'
#224
b011 #
b010 $
1'
#225
0'
#226
b100 #
b011 $
1'
#227
0'
#228
b101 #
b100 $
1'
#229
0'
#230
b001 #
b101 $
1%
1&
1'
#231
0'
#232
b010 #
b001 $
0%
0&
1'
#233
0'
#234
b011 #
b010 $
1'
#235
0'
#236
b100 #
b011 $
1'
#237
0'
#238
b101 #
b100 $
1'
#239
0'
#240
b001 #
b101 $
1%
1&
1'
#241
0'
#242
b010 #
b001 $
0%
0&
1'
#243
0'
#244
b011 #
b010 $
1'
#245
0'
#246
b100 #
b011 $
1'
#247
0'
#248
b101 #
b100 $
1'
#249
0'
#250
b001 #
b101 $
1%
1&
1'
#251
0'
#252
b010 #
b001 $
0%
0&
1'
#253
0'
#254
b011 #
b010 $
1'
#255
0'
#256
b100 #
b011 $
1'
#257
0'
#258
b101 #
b100 $
1'
#259
0'
#260
b001 #
b101 $
1%
1&
1'
#261
0'
#262
b010 #
b001 $
0%
0&
1'
#263
0'
#264
b011 #
b010 $
1'
#265
0'
#266
b100 #
b011 $
1'
#267
0'
#268
b101 #
b100 $
1'
#269
0'
#270
b001 #
b101 $
1%
1&
1'
#271
0'
#272
b010 #
b001 $
0%
0&
1'
#273
0'
#274
b011 #
b010 $
1'
#275
0'
#276
b100 #
b011 $
1'
#277
0'
#278
b101 #
b100 $
1'
#279
0'
#280
b001 #
b101 $
1%
1&
1'
#281
0'
#282
b010 #
b001 $
0%
0&
1'
#283
0'
#284
b011 #
b010 $
1'
#285
0'
#286
b100 #
b011 $
1'
#287
0'
#288
b101 #
b100 $
1'
#289
0'
#290
b001 #
b101 $
1%
1&
1'
#291
0'
#292
b010 #
b001 $
0%
0&
1'
#293
0'
#294
b011 #
b010 $
1'
#295
0'
#296
b100 #
b011 $
1'
#297
0'
#298
b101 #
b100 $
1'
#299
0'
#300
b001 #
b101 $
1%
1&
1'
#301
0'
#302
b010 #
b001 $
0%
0&
1'
#303
0'
#304
b011 #
b010 $
1'
#305
0'
#306
b100 #
b011 $
1'
#307
0'
#308
b101 #
b100 $
1'
#309
0'
#310
b001 #
b101 $
1%
1&
1'
#311
0'
#312
b010 #
b001 $
0%
0&
1'
#313
0'
#314
b011 #
b010 $
1'
#315
0'
#316
b100 #
b011 $
1'
#317
0'
#318
b101 #
b100 $
1'
#319
0'
#320
b001 #
b101 $
1%
1&
1'
#321
0'
#322
b010 #
b001 $
0%
0&
1'
#323
0'
#324
b011 #
b010 $
1'
#325
0'
#326
b100 #
b011 $
1'
#327
0'
#328
b101 #
b100 $
1'
#329
0'
#330
b001 #
b101 $
1%
1&
1'
#331
0'
#332
b010 #
b001 $
0%
0&
1'
#333
0'
#334
b011 #
b010 $
1'
#335
0'
#336
b100 #
b011 $
1'
#337
0'
#338
b101 #
b100 $
1'
#339
0'
#340
b001 #
b101 $
1%
1&
1'
#341
0'
#342
b010 #
b001 $
0%
0&
1'
#343
0'
#344
b011 #
b010 $
1'
#345
0'
#346
b100 #
b011 $
1'
#347
0'
#348
b101 #
b100 $
1'
#349
0'
#350
b001 #
b101 $
1%
1&
1'
#351
0'
#352
b010 #
b001 $
0%
0&
1'
#353
0'
#354
b011 #
b010 $
1'
#355
0'
#356
b100 #
b011 $
1'
#357
0'
#358
b101 #
b100 $
1'
#359
0'
#360
b001 #
b101 $
1%
1&
1'
#361
0'
#362
b010 #
b001 $
0%
0&
1'
#363
0'
#364
b011 #
b010 $
1'
#365
0'
#366
b100 #
b011 $
1'
#367
0'
#368
b101 #
b100 $
1'
#369
0'
#370
b001 #
b101 $
1%
1&
1'
#371
0'
#372
b010 #
b001 $
0%
0&
1'
#373
0'
#374
b011 #
b010 $
1'
#375
0'
#376
b100 #
b011 $
1'
#377
0'
#378
b101 #
b100 $
1'
#379
0'
#380
b001 #
b101 $
1%
1&
1'
#381
0'
#382
b010 #
b001 $
0%
0&
1'
#383
0'
#384
b011 #
b010 $
1'
#385
0'
#386
b100 #
b011 $
1'
#387
0'
#388
b101 #
b100 $
1'
#389
0'
#390
b001 #
b101 $
1%
1&
1'
#391
0'
#392
b010 #
b001 $
0%
0&
1'
#393
0'
#394
b011 #
b010 $
1'
#395
0'
#396
b100 #
b011 $
1'
#397
0'
#398
b101 #
b100 $
1'
#399
0'
#400
b001 #
b101 $
1%
1&
1'
#401
0'
#402
b010 #
b001 $
0%
0&
1'
#403
0'
#404
b011 #
b010 $
1'
#405
0'
#406
b100 #
b011 $
1'
#407
0'
#408
b101 #
b100 $
1'
#409
0'
#410
b001 #
b101 $
1%
1&
1'
#411
0'
#412
b010 #
b001 $
0%
0&
1'
#413
0'
#414
b011 #
b010 $
1'
#415
0'
#416
b100 #
b011 $
1'
#417
0'
#418
b101 #
b100 $
1'
#419
0'
#420
b001 #
b101 $
1%
1&
1'
#421
0'
#422
b010 #
b001 $
0%
0&
1'
#423
0'
#424
b011 #
b010 $
1'
#425
0'
#426
b100 #
b011 $
1'
#427
0'
#428
b101 #
b100 $
1'
#429
0'
#430
b001 #
b101 $
1%
1&
1'
#431
0'
#432
b010 #
b001 $
0%
0&
1'
#433
0'
#434
b011 #
b010 $
1'
#435
0'
#436
b100 #
b011 $
1'
#437
0'
#438
b101 #
b100 $
1'
#439
0'
#440
b001 #
b101 $
1%
1&
1'
#441
0'
#442
b010 #
b001 $
0%
0&
1'
#443
0'
#444
b011 #
b010 $
1'
#445
0'
#446
b100 #
b011 $
1'
#447
0'
#448
b101 #
b100 $
1'
#449
0'
#450
b001 #
b101 $
1%
1&
1'
#451
0'
#452
b010 #
b001 $
0%
0&
1'
#453
0'
#454
b011 #
b010 $
1'
#455
0'
#456
b100 #
b011 $
1'
#457
0'
#458
b101 #
b100 $
1'
#459
0'
#460
b001 #
b101 $
1%
1&
1'
#461
0'
#462
b010 #
b001 $
0%
0&
1'
#463
0'
#464
b011 #
b010 $
1'
#465
0'
#466
b100 #
b011 $
1'
#467
0'
#468
b101 #
b100 $
1'
#469
0'
#470
b001 #
b101 $
1%
1&
1'
#471
0'
#472
b010 #
b001 $
0%
0&
1'
#473
0'
#474
b011 #
b010 $
1'
#475
0'
#476
b100 #
b011 $
1'
#477
0'
#478
b101 #
b100 $
1'
#479
0'
#480
b001 #
b101 $
1%
1&
1'
#481
0'
#482
b010 #
b001 $
0%
0&
1'
#483
0'
#484
b011 #
b010 $
1'
#485
0'
#486
b100 #
b011 $
1'
#487
0'
#488
b101 #
b100 $
1'
#489
0'
#490
b001 #
b101 $
1%
1&
1'
#491
0'
#492
b010 #
b001 $
0%
0&
1'
#493
0'
#494
b011 #
b010 $
1'
#495
0'
#496
b100 #
b011 $
1'
#497
0'
#498
b101 #
b100 $
1'
#499
0'
#500
b001 #
b101 $
1%
1&
1'
#501
0'
#502
b010 #
b001 $
0%
0&
1'
#503
0'
#504
b011 #
b010 $
1'
#505
0'
#506
b100 #
b011 $
1'
#507
0'
#508
b101 #
b100 $
1'
#509
0'
#510
b001 #
b101 $
1%
1&
1'
#511
0'
#512
b010 #
b001 $
0%
0&
1'
#513
0'
#514
b011 #
b010 $
1'
#515
0'
#516
b100 #
b011 $
1'
#517
0'
#518
b101 #
b100 $
1'
#519
0'
#520
b001 #
b101 $
1%
1&
1'
#521
0'
#522
b010 #
b001 $
0%
0&
1'
#523
0'
#524
b011 #
b010 $
1'
#525
0'
#526
b100 #
b011 $
1'
#527
0'
#528
b101 #
b100 $
1'
#529
0'
#530
b001 #
b101 $
1%
1&
1'
#531
0'
#532
b010 #
b001 $
0%
0&
1'
#533
0'
#534
b011 #
b010 $
1'
#535
0'
#536
b100 #
b011 $
1'
#537
0'
#538
b101 #
b100 $
1'
#539
0'
#540
b001 #
b101 $
1%
1&
1'
#541
0'
#542
b010 #
b001 $
0%
0&
1'
#543
0'
#544
b011 #
b010 $
1'
#545
0'
#546
b100 #
b011 $
1'
#547
0'
#548
b101 #
b100 $
1'
#549
0'
#550
b001 #
b101 $
1%
1&
1'
#551
0'
#552
b010 #
b001 $
0%
0&
1'
#553
0'
#554
b011 #
b010 $
1'
#555
0'
#556
b100 #
b011 $
1'
#557
0'
#558
b101 #
b100 $
1'
#559
0'
#560
b001 #
b101 $
1%
1&
1'
#561
0'
#562
b010 #
b001 $
0%
0&
1'
#563
0'
#564
b011 #
b010 $
1'
#565
0'
#566
b100 #
b011 $
1'
#567
0'
#568
b101 #
b100 $
1'
#569
0'
#570
b001 #
b101 $
1%
1&
1'
#571
0'
#572
b010 #
b001 $
0%
0&
1'
#573
0'
#574
b011 #
b010 $
1'
#575
0'
#576
b100 #
b011 $
1'
#577
0'
#578
b101 #
b100 $
1'
#579
0'
#580
b001 #
b101 $
1%
1&
1'
#581
0'
#582
b010 #
b001 $
0%
0&
1'
#583
0'
#584
b011 #
b010 $
1'
#585
0'
#586
b100 #
b011 $
1'
#587
0'
#588
b101 #
b100 $
1'
#589
0'
#590
b001 #
b101 $
1%
1&
1'
#591
0'
#592
b010 #
b001 $
0%
0&
1'
#593
0'
#594
b011 #
b010 $
1'
#595
0'
#596
b100 #
b011 $
1'
#597
0'
#598
b101 #
b100 $
1'
#599
0'
#600
b001 #
b101 $
1%
1&
1'
#601
0'
#602
b010 #
b001 $
0%
0&
1'
#603
0'
#604
b011 #
b010 $
1'
#605
0'
#606
b100 #
b011 $
1'
#607
0'
#608
b101 #
b100 $
1'
#609
0'
#610
b001 #
b101 $
1%
1&
1'
#611
0'
#612
b010 #
b001 $
0%
0&
1'
#613
0'
#614
b011 #
b010 $
1'
#615
0'
#616
b100 #
b011 $
1'
#617
0'
#618
b101 #
b100 $
1'
#619
0'
#620
b001 #
b101 $
1%
1&
1'
#621
0'
#622
b010 #
b001 $
0%
0&
1'
#623
0'
#624
b011 #
b010 $
1'
#625
0'
#626
b100 #
b011 $
1'
#627
0'
#628
b101 #
b100 $
1'
#629
0'
#630
b001 #
b101 $
1%
1&
1'
#631
0'
#632
b010 #
b001 $
0%
0&
1'
#633
0'
#634
b011 #
b010 $
1'
#635
0'
#636
b100 #
b011 $
1'
#637
0'
#638
b101 #
b100 $
1'
#639
0'
#640
b001 #
b101 $
1%
1&
1'
#641
0'
#642
b010 #
b001 $
0%
0&
1'
#643
0'
#644
b011 #
b010 $
1'
#645
0'
#646
b100 #
b011 $
1'
#647
0'
#648
b101 #
b100 $
1'
#649
0'
#650
b001 #
b101 $
1%
1&
1'
#651
0'
#652
b010 #
b001 $
0%
0&
1'
#653
0'
#654
b011 #
b010 $
1'
#655
0'
#656
b100 #
b011 $
1'
#657
0'
#658
b101 #
b100 $
1'
#659
0'
#660
b001 #
b101 $
1%
1&
1'
#661
0'
#662
b010 #
b001 $
0%
0&
1'
#663
0'
#664
b011 #
b010 $
1'
#665
0'
#666
b100 #
b011 $
1'
#667
0'
#668
b101 #
b100 $
1'
#669
0'
#670
b001 #
b101 $
1%
1&
1'
#671
0'
#672
b010 #
b001 $
0%
0&
1'
#673
0'
#674
b011 #
b010 $
1'
#675
0'
#676
b100 #
b011 $
1'
#677
0'
#678
b101 #
b100 $
1'
#679
0'
#680
b001 #
b101 $
1%
1&
1'
#681
0'
#682
b010 #
b001 $
0%
0&
1'
#683
0'
#684
b011 #
b010 $
1'
#685
0'
#686
b100 #
b011 $
1'
#687
0'
#688
b101 #
b100 $
1'
#689
0'
#690
b001 #
b101 $
1%
1&
1'
#691
0'
#692
b010 #
b001 $
0%
0&
1'
#693
0'
#694
b011 #
b010 $
1'
#695
0'
#696
b100 #
b011 $
1'
#697
0'
#698
b101 #
b100 $
1'
#699
0'
#700
b001 #
b101 $
1%
1&
1'
#701
0'
#702
b010 #
b001 $
0%
0&
1'
#703
0'
#704
b011 #
b010 $
1'
#705
0'
#706
b100 #
b011 $
1'
#707
0'
#708
b101 #
b100 $
1'
#709
0'
#710
b001 #
b101 $
1%
1&
1'
#711
0'
#712
b010 #
b001 $
0%
0&
1'
#713
0'
#714
b011 #
b010 $
1'
#715
0'
#716
b100 #
b011 $
1'
#717
0'
#718
b101 #
b100 $
1'
#719
0'
#720
b001 #
b101 $
1%
1&
1'
#721
0'
#722
b010 #
b001 $
0%
0&
1'
#723
0'
#724
b011 #
b010 $
1'
#725
0'
#726
b100 #
b011 $
1'
#727
0'
#728
b101 #
b100 $
1'
#729
0'
#730
b001 #
b101 $
1%
1&
1'
#731
0'
#732
b010 #
b001 $
0%
0&
1'
#733
0'
#734
b011 #
b010 $
1'
#735
0'
#736
b100 #
b011 $
1'
#737
0'
#738
b101 #
b100 $
1'
#739
0'
#740
b001 #
b101 $
1%
1&
1'
#741
0'
#742
b010 #
b001 $
0%
0&
1'
#743
0'
#744
b011 #
b010 $
1'
#745
0'
#746
b100 #
b011 $
1'
#747
0'
#748
b101 #
b100 $
1'
#749
0'
#750
b001 #
b101 $
1%
1&
1'
#751
0'
#752
b010 #
b001 $
0%
0&
1'
#753
0'
#754
b011 #
b010 $
1'
#755
0'
#756
b100 #
b011 $
1'
#757
0'
#758
b101 #
b100 $
1'
#759
0'
#760
b001 #
b101 $
1%
1&
1'
#761
0'
#762
b010 #
b001 $
0%
0&
1'
#763
0'
#764
b011 #
b010 $
1'
#765
0'
#766
b100 #
b011 $
1'
#767
0'
#768
b101 #
b100 $
1'
#769
0'
#770
b001 #
b101 $
1%
1&
1'
#771
0'
#772
b010 #
b001 $
0%
0&
1'
#773
0'
#774
b011 #
b010 $
1'
#775
0'
#776
b100 #
b011 $
1'
#777
0'
#778
b101 #
b100 $
1'
#779
0'
#780
b001 #
b101 $
1%
1&
1'
#781
0'
#782
b010 #
b001 $
0%
0&
1'
#783
0'
#784
b011 #
b010 $
1'
#785
0'
#786
b100 #
b011 $
1'
#787
0'
#788
b101 #
b100 $
1'
#789
0'
#790
b001 #
b101 $
1%
1&
1'
#791
0'
#792
b010 #
b001 $
0%
0&
1'
#793
0'
#794
b011 #
b010 $
1'
#795
0'
#796
b100 #
b011 $
1'
#797
0'
#798
b101 #
b100 $
1'
#799
0'
#800
b001 #
b101 $
1%
1&
1'
#801
0'
#802
b010 #
b001 $
0%
0&
1'
#803
0'
#804
b011 #
b010 $
1'
#805
0'
#806
b100 #
b011 $
1'
#807
0'
#808
b101 #
b100 $
1'
#809
0'
#810
b001 #
b101 $
1%
1&
1'
#811
0'
#812
b010 #
b001 $
0%
0&
1'
#813
0'
#814
b011 #
b010 $
1'
#815
0'
#816
b100 #
b011 $
1'
#817
0'
#818
b101 #
b100 $
1'
#819
0'
#820
b001 #
b101 $
1%
1&
1'
#821
0'
#822
b010 #
b001 $
0%
0&
1'
#823
0'
#824
b011 #
b010 $
1'
#825
0'
#826
b100 #
b011 $
1'
#827
0'
#828
b101 #
b100 $
1'
#829
0'
#830
b001 #
b101 $
1%
1&
1'
#831
0'
#832
b010 #
b001 $
0%
0&
1'
#833
0'
#834
b011 #
b010 $
1'
#835
0'
#836
b100 #
b011 $
1'
#837
0'
#838
b101 #
b100 $
1'
#839
0'
#840
b001 #
b101 $
1%
1&
1'
#841
0'
#842
b010 #
b001 $
0%
0&
1'
#843
0'
#844
b011 #
b010 $
1'
#845
0'
#846
b100 #
b011 $
1'
#847
0'
#848
b101 #
b100 $
1'
#849
0'
#850
b001 #
b101 $
1%
1&
1'
#851
0'
#852
b010 #
b001 $
0%
0&
1'
#853
0'
#854
b011 #
b010 $
1'
#855
0'
#856
b100 #
b011 $
1'
#857
0'
#858
b101 #
b100 $
1'
#859
0'
#860
b001 #
b101 $
1%
1&
1'
#861
0'
#862
b010 #
b001 $
0%
0&
1'
#863
0'
#864
b011 #
b010 $
1'
#865
0'
#866
b100 #
b011 $
1'
#867
0'
#868
b101 #
b100 $
1'
#869
0'
#870
b001 #
b101 $
1%
1&
1'
#871
0'
#872
b010 #
b001 $
0%
0&
1'
#873
0'
#874
b011 #
b010 $
1'
#875
0'
#876
b100 #
b011 $
1'
#877
0'
#878
b101 #
b100 $
1'
#879
0'
#880
b001 #
b101 $
1%
1&
1'
#881
0'
#882
b010 #
b001 $
0%
0&
1'
#883
0'
#884
b011 #
b010 $
1'
#885
0'
#886
b100 #
b011 $
1'
#887
0'
#888
b101 #
b100 $
1'
#889
0'
#890
b001 #
b101 $
1%
1&
1'
#891
0'
#892
b010 #
b001 $
0%
0&
1'
#893
0'
#894
b011 #
b010 $
1'
#895
0'
#896
b100 #
b011 $
1'
#897
0'
#898
b101 #
b100 $
1'
#899
0'
#900
b001 #
b101 $
1%
1&
1'
#901
0'
#902
b010 #
b001 $
0%
0&
1'
#903
0'
#904
b011 #
b010 $
1'
#905
0'
#906
b100 #
b011 $
1'
#907
0'
#908
b101 #
b100 $
1'
#909
0'
#910
b001 #
b101 $
1%
1&
1'
#911
0'
#912
b010 #
b001 $
0%
0&
1'
#913
0'
#914
b011 #
b010 $
1'
#915
0'
#916
b100 #
b011 $
1'
#917
0'
#918
b101 #
b100 $
1'
#919
0'
#920
b001 #
b101 $
1%
1&
1'
#921
0'
#922
b010 #
b001 $
0%
0&
1'
#923
0'
#924
b011 #
b010 $
1'
#925
0'
#926
b100 #
b011 $
1'
#927
0'
#928
b101 #
b100 $
1'
#929
0'
#930
b001 #
b101 $
1%
1&
1'
#931
0'
#932
b010 #
b001 $
0%
0&
1'
#933
0'
#934
b011 #
b010 $
1'
#935
0'
#936
b100 #
b011 $
1'
#937
0'
#938
b101 #
b100 $
1'
#939
0'
#940
b001 #
b101 $
1%
1&
1'
#941
0'
#942
b010 #
b001 $
0%
0&
1'
#943
0'
#944
b011 #
b010 $
1'
#945
0'
#946
b100 #
b011 $
1'
#947
0'
#948
b101 #
b100 $
1'
#949
0'
#950
b001 #
b101 $
1%
1&
1'
#951
0'
#952
b010 #
b001 $
0%
0&
1'
#953
0'
#954
b011 #
b010 $
1'
#955
0'
#956
b100 #
b011 $
1'
#957
0'
#958
b101 #
b100 $
1'
#959
0'
#960
b001 #
b101 $
1%
1&
1'
#961
0'
#962
b010 #
b001 $
0%
0&
1'
#963
0'
#964
b011 #
b010 $
1'
#965
0'
#966
b100 #
b011 $
1'
#967
0'
#968
b101 #
b100 $
1'
#969
0'
#970
b001 #
b101 $
1%
1&
1'
#971
0'
#972
b010 #
b001 $
0%
0&
1'
#973
0'
#974
b011 #
b010 $
1'
#975
0'
#976
b100 #
b011 $
1'
#977
0'
#978
b101 #
b100 $
1'
#979
0'
#980
b001 #
b101 $
1%
1&
1'
#981
0'
#982
b010 #
b001 $
0%
0&
1'
#983
0'
#984
b011 #
b010 $
1'
#985
0'
#986
b100 #
b011 $
1'
#987
0'
#988
b101 #
b100 $
1'
#989
0'
#990
b001 #
b101 $
1%
1&
1'
#991
0'
#992
b010 #
b001 $
0%
0&
1'
#993
0'
#994
b011 #
b010 $
1'
#995
0'
#996
b100 #
b011 $
1'
#997
0'
#998
b101 #
b100 $
1'
#999
0'
#1000
b001 #
b101 $
1%
1&
1'
#1001
0'
#1002
b010 #
b001 $
0%
0&
1'
#1003
0'
#1004
b011 #
b010 $
1'
#1005
0'
#1006
b100 #
b011 $
1'
#1007
0'
#1008
b101 #
b100 $
1'
#1009
0'
#1010
b001 #
b101 $
1%
1&
1'
#1011
0'
#1012
b010 #
b001 $
0%
0&
1'
#1013
0'
#1014
b011 #
b010 $
1'
#1015
0'
#1016
b100 #
b011 $
1'
#1017
0'
#1018
b101 #
b100 $
1'
#1019
0'
#1020
b001 #
b101 $
1%
1&
1'
#1021
0'
#1022
b010 #
b001 $
0%
0&
1'
#1023
0'
#1024
b011 #
b010 $
1'
#1025
0'
#1026
b100 #
b011 $
1'
#1027
0'
#1028
b101 #
b100 $
1'
#1029
0'
#1030
b001 #
b101 $
1%
1&
1'
#1031
0'
#1032
b010 #
b001 $
0%
0&
1'
#1033
0'
#1034
b011 #
b010 $
1'
#1035
0'
#1036
b100 #
b011 $
1'
#1037
0'
#1038
b101 #
b100 $
1'
#1039
0'
#1040
b001 #
b101 $
1%
1&
1'
#1041
0'
#1042
b010 #
b001 $
0%
0&
1'
#1043
0'
#1044
b011 #
b010 $
1'
#1045
0'
#1046
b100 #
b011 $
1'
#1047
0'
#1048
b101 #
b100 $
1'
#1049
0'
#1050
b001 #
b101 $
1%
1&
1'
#1051
0'
#1052
b010 #
b001 $
0%
0&
1'
#1053
0'
#1054
b011 #
b010 $
1'
#1055
0'
#1056
b100 #
b011 $
1'
#1057
0'
#1058
b101 #
b100 $
1'
#1059
0'
#1060
b001 #
b101 $
1%
1&
1'
#1061
0'
#1062
b010 #
b001 $
0%
0&
1'
#1063
0'
#1064
b011 #
b010 $
1'
#1065
0'
#1066
b100 #
b011 $
1'
#1067
0'
#1068
b101 #
b100 $
1'
#1069
0'
#1070
b001 #
b101 $
1%
1&
1'
#1071
0'
#1072
b010 #
b001 $
0%
0&
1'
#1073
0'
#1074
b011 #
b010 $
1'
#1075
0'
#1076
b100 #
b011 $
1'
#1077
0'
#1078
b101 #
b100 $
1'
#1079
0'
#1080
b001 #
b101 $
1%
1&
1'
#1081
0'
#1082
b010 #
b001 $
0%
0&
1'
#1083
0'
#1084
b011 #
b010 $
1'
#1085
0'
#1086
b100 #
b011 $
1'
#1087
0'
#1088
b101 #
b100 $
1'
#1089
0'
#1090
b001 #
b101 $
1%
1&
1'
#1091
0'
#1092
b010 #
b001 $
0%
0&
1'
#1093
0'
#1094
b011 #
b010 $
1'
#1095
0'
#1096
b100 #
b011 $
1'
#1097
0'
#1098
b101 #
b100 $
1'
#1099
0'
#1100
b001 #
b101 $
1%
1&
1'
#1101
0'
#1102
b010 #
b001 $
0%
0&
1'
#1103
0'
#1104
b011 #
b010 $
1'
#1105
0'
#1106
b100 #
b011 $
1'
#1107
0'
#1108
b101 #
b100 $
1'
#1109
0'
#1110
b001 #
b101 $
1%
1&
1'
#1111
0'
#1112
b010 #
b001 $
0%
0&
1'
#1113
0'
#1114
b011 #
b010 $
1'
#1115
0'
#1116
b100 #
b011 $
1'
#1117
0'
#1118
b101 #
b100 $
1'
#1119
0'
#1120
b001 #
b101 $
1%
1&
1'
#1121
0'
#1122
b010 #
b001 $
0%
0&
1'
#1123
0'
#1124
b011 #
b010 $
1'
#1125
0'
#1126
b100 #
b011 $
1'
#1127
0'
#1128
b101 #
b100 $
1'
#1129
0'
#1130
b001 #
b101 $
1%
1&
1'
#1131
0'
#1132
b010 #
b001 $
0%
0&
1'
#1133
0'
#1134
b011 #
b010 $
1'
#1135
0'
#1136
b100 #
b011 $
1'
#1137
0'
#1138
b101 #
b100 $
1'
#1139
0'
#1140
b001 #
b101 $
1%
1&
1'
#1141
0'
#1142
b010 #
b001 $
0%
0&
1'
#1143
0'
#1144
b011 #
b010 $
1'
#1145
0'
#1146
b100 #
b011 $
1'
#1147
0'
#1148
b101 #
b100 $
1'
#1149
0'
#1150
b001 #
b101 $
1%
1&
1'
#1151
0'
#1152
b010 #
b001 $
0%
0&
1'
#1153
0'
#1154
b011 #
b010 $
1'
#1155
0'
#1156
b100 #
b011 $
1'
#1157
0'
#1158
b101 #
b100 $
1'
#1159
0'
#1160
b001 #
b101 $
1%
1&
1'
#1161
0'
#1162
b010 #
b001 $
0%
0&
1'
#1163
0'
#1164
b011 #
b010 $
1'
#1165
0'
#1166
b100 #
b011 $
1'
#1167
0'
#1168
b101 #
b100 $
1'
#1169
0'
#1170
b001 #
b101 $
1%
1&
1'
#1171
0'
#1172
b010 #
b001 $
0%
0&
1'
#1173
0'
#1174
b011 #
b010 $
1'
#1175
0'
#1176
b100 #
b011 $
1'
#1177
0'
#1178
b101 #
b100 $
1'
#1179
0'
#1180
b001 #
b101 $
1%
1&
1'
#1181
0'
#1182
b010 #
b001 $
0%
0&
1'
#1183
0'
#1184
b011 #
b010 $
1'
#1185
0'
#1186
b100 #
b011 $
1'
#1187
0'
#1188
b101 #
b100 $
1'
#1189
0'
#1190
b001 #
b101 $
1%
1&
1'
#1191
0'
#1192
b010 #
b001 $
0%
0&
1'
#1193
0'
#1194
b011 #
b010 $
1'
#1195
0'
#1196
b100 #
b011 $
1'
#1197
0'
#1198
b101 #
b100 $
1'
#1199
0'
#1200
b001 #
b101 $
1%
1&
1'
#1201
0'
#1202
b010 #
b001 $
0%
0&
1'
#1203
0'
#1204
b011 #
b010 $
1'
#1205
0'
#1206
b100 #
b011 $
1'
#1207
0'
#1208
b101 #
b100 $
1'
#1209
0'
#1210
b001 #
b101 $
1%
1&
1'
#1211
0'
